FPGA.sim/sim_1/behav/xsim/simulate.log
Time resolution is 1 ps

=== TC1: TMODE0 EMODE0 continuous, channel 0 waveform ===
    [MON] t=65000 cnt=0 wave=00000000 ena_clr=0
    [MON] t=75000 cnt=1 wave=00000000 ena_clr=0
    [MON] t=85000 cnt=2 wave=00000000 ena_clr=0
    [MON] t=95000 cnt=3 wave=00000001 ena_clr=0
    [MON] t=105000 cnt=4 wave=00000001 ena_clr=0
    [MON] t=115000 cnt=5 wave=00000001 ena_clr=0
    [MON] t=125000 cnt=6 wave=00000001 ena_clr=0
    [MON] t=135000 cnt=7 wave=00000000 ena_clr=0
    [MON] t=145000 cnt=8 wave=00000000 ena_clr=0
    [MON] t=155000 cnt=9 wave=00000000 ena_clr=0
    [MON] t=165000 cnt=0 wave=00000000 ena_clr=0
    [MON] t=175000 cnt=1 wave=00000000 ena_clr=0
    [MON] t=185000 cnt=2 wave=00000000 ena_clr=0
    [MON] t=195000 cnt=3 wave=00000001 ena_clr=0
    [MON] t=205000 cnt=4 wave=00000001 ena_clr=0
    [MON] t=215000 cnt=5 wave=00000001 ena_clr=0
    [MON] t=225000 cnt=6 wave=00000001 ena_clr=0
    [MON] t=235000 cnt=7 wave=00000000 ena_clr=0
    [MON] t=245000 cnt=8 wave=00000000 ena_clr=0
    [MON] t=255000 cnt=9 wave=00000000 ena_clr=0
    [MON] t=265000 cnt=0 wave=00000000 ena_clr=0
    [MON] t=275000 cnt=1 wave=00000000 ena_clr=0
    [MON] t=285000 cnt=2 wave=00000000 ena_clr=0
  [PASS] TC1 busy after start
    [MON] t=295000 cnt=3 wave=00000001 ena_clr=0
    [MON] t=305000 cnt=4 wave=00000001 ena_clr=0
    [MON] t=315000 cnt=5 wave=00000001 ena_clr=0
    [MON] t=325000 cnt=6 wave=00000001 ena_clr=0
    [MON] t=335000 cnt=7 wave=00000000 ena_clr=0
    [MON] t=345000 cnt=8 wave=00000000 ena_clr=0
    [MON] t=355000 cnt=9 wave=00000000 ena_clr=0
  [PASS] TC1 idle after ENA=0

=== TC2: TMODE0 finish-cycle after ENA de-assert ===
    [MON] t=435000 cnt=0 wave=00000000 ena_clr=0
    [MON] t=445000 cnt=1 wave=00000000 ena_clr=0
  [PASS] TC2 still busy after ENA=0 mid-cycle
    [MON] t=455000 cnt=2 wave=00000000 ena_clr=0
    [MON] t=465000 cnt=3 wave=00000000 ena_clr=0
    [MON] t=475000 cnt=4 wave=00000000 ena_clr=0
    [MON] t=485000 cnt=5 wave=00000000 ena_clr=0
    [MON] t=495000 cnt=6 wave=00000000 ena_clr=0
    [MON] t=505000 cnt=7 wave=00000000 ena_clr=0
    [MON] t=515000 cnt=8 wave=00000000 ena_clr=0
    [MON] t=525000 cnt=9 wave=00000000 ena_clr=0
  [PASS] TC2 idle after cycle ends

=== TC3: TMODE1 NCYCLES=3 auto-stop ===
  [PASS] TC3 auto-stopped after NCYCLES

=== TC4: TMODE1 NCYCLES=0 immediate stop ===
  [PASS] TC4 never started (ncycles=0)

=== TC5: EMODE1 trigger edge start ===
  [PASS] TC5 not started before trigger
  [PASS] TC5 started after trigger edge
    [MON] t=775000 cnt=0 wave=00000000 ena_clr=0
    [MON] t=785000 cnt=1 wave=00000000 ena_clr=0
    [MON] t=795000 cnt=2 wave=00000000 ena_clr=0
    [MON] t=805000 cnt=3 wave=00000000 ena_clr=0
    [MON] t=815000 cnt=4 wave=00000000 ena_clr=0
    [MON] t=825000 cnt=5 wave=00000000 ena_clr=0
    [MON] t=835000 cnt=6 wave=00000000 ena_clr=0
    [MON] t=845000 cnt=7 wave=00000000 ena_clr=0
    [MON] t=855000 cnt=8 wave=00000000 ena_clr=0
    [MON] t=865000 cnt=9 wave=00000000 ena_clr=0
  [PASS] TC5 auto-stopped after NCYCLES
  [PASS] TC5 no start when ENA=0

=== TC6: EMODE2 level trigger ===
  [PASS] TC6 idle without trigger
    [MON] t=1025000 cnt=0 wave=00000000 ena_clr=0
    [MON] t=1035000 cnt=1 wave=00000000 ena_clr=0
    [MON] t=1045000 cnt=2 wave=00000000 ena_clr=0
  [PASS] TC6 running with trigger high
    [MON] t=1055000 cnt=3 wave=00000000 ena_clr=0
  [PASS] TC6 still busy after trigger low (finish-cycle)
    [MON] t=1065000 cnt=4 wave=00000000 ena_clr=0
    [MON] t=1075000 cnt=5 wave=00000000 ena_clr=0
    [MON] t=1085000 cnt=6 wave=00000000 ena_clr=0
    [MON] t=1095000 cnt=7 wave=00000000 ena_clr=0
    [MON] t=1105000 cnt=8 wave=00000000 ena_clr=0
    [MON] t=1115000 cnt=9 wave=00000000 ena_clr=0
  [PASS] TC6 stopped after cycle ends

=== TC7: INVERT channel 1 ===
    [MON] t=1195000 cnt=0 wave=00000010 ena_clr=0
  [PASS] TC7 ch1=1 at start (inverted idle)
    [MON] t=1205000 cnt=1 wave=00000010 ena_clr=0
  [PASS] TC7 ch1=0 after CMS (inverted)
    [MON] t=1215000 cnt=2 wave=00000000 ena_clr=0
    [MON] t=1225000 cnt=3 wave=00000000 ena_clr=0
    [MON] t=1235000 cnt=4 wave=00000000 ena_clr=0
    [MON] t=1245000 cnt=5 wave=00000000 ena_clr=0
  [PASS] TC7 ch1=1 after CMR (inverted)
    [MON] t=1255000 cnt=6 wave=00000010 ena_clr=0
    [MON] t=1265000 cnt=7 wave=00000010 ena_clr=0
    [MON] t=1275000 cnt=8 wave=00000010 ena_clr=0
    [MON] t=1285000 cnt=9 wave=00000010 ena_clr=0

======================================================
  Simulation complete
  Checks  : 17
  Passed  : 17
  Failed  : 0
  Result  : ALL PASS
======================================================

$finish called at time : 1295 ns : File "C:/Users/Dennisov/FPGA/FPGA.srcs/sources_1/new/tb_gf_timer.sv" Line 336
